[
  {
    "type": "post",
    "url": "/provider/register",
    "title": "Create a provider",
    "name": "Create_Provider",
    "description": "<p>This involves getting a email confirmation after registration</p>",
    "group": "Provider",
    "parameter": {
      "fields": {
        "Parameter": [
          {
            "group": "Parameter",
            "type": "String",
            "optional": false,
            "field": "category",
            "description": "<p>(Required) Facebook id of the user</p>"
          },
          {
            "group": "Parameter",
            "type": "String",
            "optional": false,
            "field": "bizname",
            "description": "<p>Username of the user</p>"
          },
          {
            "group": "Parameter",
            "type": "String",
            "optional": false,
            "field": "about",
            "description": "<p>The brief description about the provider</p>"
          },
          {
            "group": "Parameter",
            "type": "String",
            "optional": false,
            "field": "email",
            "description": "<p>Email of the provider</p>"
          },
          {
            "group": "Parameter",
            "type": "float",
            "optional": false,
            "field": "latitude",
            "description": "<p>Latitude address of the provider</p>"
          },
          {
            "group": "Parameter",
            "type": "float",
            "optional": false,
            "field": "longitude",
            "description": "<p>Longtitude of the address of the provider</p>"
          },
          {
            "group": "Parameter",
            "type": "String",
            "optional": false,
            "field": "password",
            "description": "<p>Password of the provider</p>"
          },
          {
            "group": "Parameter",
            "type": "String",
            "optional": false,
            "field": "username",
            "description": "<p>Username of the provider</p>"
          }
        ]
      }
    },
    "success": {
      "fields": {
        "Success 200": [
          {
            "group": "Success 200",
            "type": "String",
            "optional": false,
            "field": "message",
            "description": "<p>Successfully created user</p>"
          },
          {
            "group": "Success 200",
            "type": "Boolean",
            "optional": false,
            "field": "status",
            "description": "<p>true</p>"
          }
        ]
      }
    },
    "error": {
      "fields": {
        "Error 4xx": [
          {
            "group": "Error 4xx",
            "type": "Boolean",
            "optional": false,
            "field": "status",
            "description": "<p>false</p>"
          },
          {
            "group": "Error 4xx",
            "type": "String",
            "optional": false,
            "field": "message",
            "description": "<p>The username and password exists or either of them</p>"
          },
          {
            "group": "Error 4xx",
            "type": "Code",
            "optional": false,
            "field": "code",
            "description": "<p>The codes depend on what type of error message you receive</p>"
          }
        ]
      }
    },
    "version": "0.0.0",
    "filename": "app/Controller/ProviderController.php",
    "groupTitle": "Provider"
  },
  {
    "type": "post",
    "url": "/provider/login",
    "title": "Login a provider",
    "name": "Login_Provider",
    "description": "<p>This is the provider login</p>",
    "group": "Provider",
    "parameter": {
      "fields": {
        "Parameter": [
          {
            "group": "Parameter",
            "type": "String",
            "optional": false,
            "field": "email",
            "description": "<p>Email of the provider</p>"
          },
          {
            "group": "Parameter",
            "type": "String",
            "optional": false,
            "field": "password",
            "description": "<p>Password of the provider</p>"
          }
        ]
      }
    },
    "success": {
      "fields": {
        "Success 200": [
          {
            "group": "Success 200",
            "type": "String",
            "optional": false,
            "field": "message",
            "description": "<p>Successfully created user</p>"
          },
          {
            "group": "Success 200",
            "type": "Boolean",
            "optional": false,
            "field": "status",
            "description": "<p>true</p>"
          }
        ]
      }
    },
    "error": {
      "fields": {
        "Error 4xx": [
          {
            "group": "Error 4xx",
            "type": "Boolean",
            "optional": false,
            "field": "status",
            "description": "<p>false</p>"
          },
          {
            "group": "Error 4xx",
            "type": "String",
            "optional": false,
            "field": "message",
            "description": "<p>The username and password exists or either of them</p>"
          },
          {
            "group": "Error 4xx",
            "type": "Code",
            "optional": false,
            "field": "code",
            "description": "<p>The codes depend on what type of error message you receive</p>"
          }
        ]
      }
    },
    "version": "0.0.0",
    "filename": "app/Controller/ProviderController.php",
    "groupTitle": "Provider"
  },
  {
    "type": "post",
    "url": "/provider/review",
    "title": "Review a provider",
    "name": "ReviewProvider",
    "description": "<p>Reviewing a provider profile</p>",
    "group": "Provider",
    "parameter": {
      "fields": {
        "Parameter": [
          {
            "group": "Parameter",
            "type": "String",
            "optional": false,
            "field": "category",
            "description": "<p>(Required) Facebook id of the user</p>"
          },
          {
            "group": "Parameter",
            "type": "String",
            "optional": false,
            "field": "bizname",
            "description": "<p>Username of the user</p>"
          },
          {
            "group": "Parameter",
            "type": "String",
            "optional": false,
            "field": "about",
            "description": "<p>The brief description about the provider</p>"
          },
          {
            "group": "Parameter",
            "type": "String",
            "optional": false,
            "field": "email",
            "description": "<p>Email of the provider</p>"
          },
          {
            "group": "Parameter",
            "type": "float",
            "optional": false,
            "field": "latitude",
            "description": "<p>Latitude address of the provider</p>"
          },
          {
            "group": "Parameter",
            "type": "float",
            "optional": false,
            "field": "longitude",
            "description": "<p>Longtitude of the address of the provider</p>"
          },
          {
            "group": "Parameter",
            "type": "String",
            "optional": false,
            "field": "password",
            "description": "<p>Password of the provider</p>"
          },
          {
            "group": "Parameter",
            "type": "String",
            "optional": false,
            "field": "username",
            "description": "<p>Username of the provider</p>"
          }
        ]
      }
    },
    "success": {
      "fields": {
        "Success 200": [
          {
            "group": "Success 200",
            "type": "String",
            "optional": false,
            "field": "message",
            "description": "<p>Successfully created user</p>"
          },
          {
            "group": "Success 200",
            "type": "Boolean",
            "optional": false,
            "field": "status",
            "description": "<p>true</p>"
          }
        ]
      }
    },
    "error": {
      "fields": {
        "Error 4xx": [
          {
            "group": "Error 4xx",
            "type": "Boolean",
            "optional": false,
            "field": "status",
            "description": "<p>false</p>"
          },
          {
            "group": "Error 4xx",
            "type": "String",
            "optional": false,
            "field": "message",
            "description": "<p>The username and password exists or either of them</p>"
          },
          {
            "group": "Error 4xx",
            "type": "Code",
            "optional": false,
            "field": "code",
            "description": "<p>The codes depend on what type of error message you receive</p>"
          }
        ]
      }
    },
    "version": "0.0.0",
    "filename": "app/Controller/ProviderController.php",
    "groupTitle": "Provider"
  },
  {
    "type": "put",
    "url": "/provider/account",
    "title": "Change a provider account password",
    "name": "Update_Provider",
    "description": "<p>This to change a providers password</p>",
    "group": "Provider",
    "parameter": {
      "fields": {
        "Parameter": [
          {
            "group": "Parameter",
            "type": "String",
            "optional": false,
            "field": "username",
            "description": "<p>Username of the provider</p>"
          },
          {
            "group": "Parameter",
            "type": "String",
            "optional": false,
            "field": "password",
            "description": "<p>new Password of the provider</p>"
          },
          {
            "group": "Parameter",
            "type": "String",
            "optional": false,
            "field": "opassword",
            "description": "<p>old Password of the provider</p>"
          }
        ]
      }
    },
    "success": {
      "fields": {
        "Success 200": [
          {
            "group": "Success 200",
            "type": "String",
            "optional": false,
            "field": "message",
            "description": "<p>Successfully created user</p>"
          },
          {
            "group": "Success 200",
            "type": "Boolean",
            "optional": false,
            "field": "status",
            "description": "<p>true</p>"
          }
        ]
      }
    },
    "error": {
      "fields": {
        "Error 4xx": [
          {
            "group": "Error 4xx",
            "type": "Boolean",
            "optional": false,
            "field": "status",
            "description": "<p>false</p>"
          },
          {
            "group": "Error 4xx",
            "type": "String",
            "optional": false,
            "field": "message",
            "description": "<p>The username and password exists or either of them</p>"
          },
          {
            "group": "Error 4xx",
            "type": "Code",
            "optional": false,
            "field": "code",
            "description": "<p>The codes depend on what type of error message you receive</p>"
          }
        ]
      }
    },
    "version": "0.0.0",
    "filename": "app/Controller/ProviderController.php",
    "groupTitle": "Provider"
  },
  {
    "type": "get",
    "url": "/provider",
    "title": "Get a providers information",
    "name": "GetAllProviders",
    "description": "<p>all Providers verified or unverified</p>",
    "group": "Search",
    "parameter": {
      "fields": {
        "Parameter": [
          {
            "group": "Parameter",
            "type": "int",
            "optional": false,
            "field": "size",
            "description": "<p>Size of the provider wanted</p>"
          },
          {
            "group": "Parameter",
            "type": "int",
            "optional": false,
            "field": "page",
            "description": "<p>page of the number of pages</p>"
          }
        ]
      }
    },
    "success": {
      "fields": {
        "Success 200": [
          {
            "group": "Success 200",
            "type": "Boolean",
            "optional": false,
            "field": "status",
            "description": "<p>true</p>"
          },
          {
            "group": "Success 200",
            "type": "String[]",
            "optional": false,
            "field": "providers",
            "description": "<p>List of providers</p>"
          },
          {
            "group": "Success 200",
            "type": "int",
            "optional": false,
            "field": "total",
            "description": "<p>total number of search result</p>"
          },
          {
            "group": "Success 200",
            "type": "int",
            "optional": false,
            "field": "current",
            "description": "<p>Current page of search result</p>"
          },
          {
            "group": "Success 200",
            "type": "link",
            "optional": false,
            "field": "next",
            "description": "<p>Shows link to the next page, is null if no next page</p>"
          },
          {
            "group": "Success 200",
            "type": "link",
            "optional": false,
            "field": "prev",
            "description": "<p>Shows link to the prev page, is null if no prev page</p>"
          }
        ]
      }
    },
    "error": {
      "fields": {
        "Error 4xx": [
          {
            "group": "Error 4xx",
            "type": "Boolean",
            "optional": false,
            "field": "status",
            "description": "<p>false</p>"
          },
          {
            "group": "Error 4xx",
            "type": "String",
            "optional": false,
            "field": "message",
            "description": "<p>No providers found</p>"
          }
        ]
      }
    },
    "version": "0.0.0",
    "filename": "app/Controller/ProviderController.php",
    "groupTitle": "Search"
  },
  {
    "type": "get",
    "url": "/provider/verified",
    "title": "Get a providers information",
    "name": "GetAllProviders",
    "description": "<p>all Providers verified or unverified</p>",
    "group": "Search",
    "parameter": {
      "fields": {
        "Parameter": [
          {
            "group": "Parameter",
            "type": "int",
            "optional": false,
            "field": "size",
            "description": "<p>Size of the provider wanted</p>"
          },
          {
            "group": "Parameter",
            "type": "int",
            "optional": false,
            "field": "page",
            "description": "<p>page of the number of pages</p>"
          }
        ]
      }
    },
    "success": {
      "fields": {
        "Success 200": [
          {
            "group": "Success 200",
            "type": "Boolean",
            "optional": false,
            "field": "status",
            "description": "<p>true</p>"
          },
          {
            "group": "Success 200",
            "type": "String[]",
            "optional": false,
            "field": "providers",
            "description": "<p>List of providers</p>"
          },
          {
            "group": "Success 200",
            "type": "int",
            "optional": false,
            "field": "total",
            "description": "<p>total number of search result</p>"
          },
          {
            "group": "Success 200",
            "type": "int",
            "optional": false,
            "field": "current",
            "description": "<p>Current page of search result</p>"
          },
          {
            "group": "Success 200",
            "type": "link",
            "optional": false,
            "field": "next",
            "description": "<p>Shows link to the next page, is null if no next page</p>"
          },
          {
            "group": "Success 200",
            "type": "link",
            "optional": false,
            "field": "prev",
            "description": "<p>Shows link to the prev page, is null if no prev page</p>"
          }
        ]
      }
    },
    "error": {
      "fields": {
        "Error 4xx": [
          {
            "group": "Error 4xx",
            "type": "Boolean",
            "optional": false,
            "field": "status",
            "description": "<p>false</p>"
          },
          {
            "group": "Error 4xx",
            "type": "String",
            "optional": false,
            "field": "message",
            "description": "<p>No providers found</p>"
          }
        ]
      }
    },
    "version": "0.0.0",
    "filename": "app/Controller/ProviderController.php",
    "groupTitle": "Search"
  },
  {
    "type": "get",
    "url": "/provider",
    "title": "Get a providers information",
    "name": "GetAllUnverifiedProviders",
    "description": "<p>all Providers unverified</p>",
    "group": "Search",
    "parameter": {
      "fields": {
        "Parameter": [
          {
            "group": "Parameter",
            "type": "int",
            "optional": false,
            "field": "size",
            "description": "<p>Size of the provider wanted</p>"
          },
          {
            "group": "Parameter",
            "type": "int",
            "optional": false,
            "field": "page",
            "description": "<p>page of the number of pages</p>"
          }
        ]
      }
    },
    "success": {
      "fields": {
        "Success 200": [
          {
            "group": "Success 200",
            "type": "Boolean",
            "optional": false,
            "field": "status",
            "description": "<p>true</p>"
          },
          {
            "group": "Success 200",
            "type": "String[]",
            "optional": false,
            "field": "providers",
            "description": "<p>List of providers</p>"
          },
          {
            "group": "Success 200",
            "type": "int",
            "optional": false,
            "field": "total",
            "description": "<p>total number of search result</p>"
          },
          {
            "group": "Success 200",
            "type": "int",
            "optional": false,
            "field": "current",
            "description": "<p>Current page of search result</p>"
          },
          {
            "group": "Success 200",
            "type": "link",
            "optional": false,
            "field": "next",
            "description": "<p>Shows link to the next page, is null if no next page</p>"
          },
          {
            "group": "Success 200",
            "type": "link",
            "optional": false,
            "field": "prev",
            "description": "<p>Shows link to the prev page, is null if no prev page</p>"
          }
        ]
      }
    },
    "error": {
      "fields": {
        "Error 4xx": [
          {
            "group": "Error 4xx",
            "type": "Boolean",
            "optional": false,
            "field": "status",
            "description": "<p>false</p>"
          },
          {
            "group": "Error 4xx",
            "type": "String",
            "optional": false,
            "field": "message",
            "description": "<p>No providers found</p>"
          }
        ]
      }
    },
    "version": "0.0.0",
    "filename": "app/Controller/ProviderController.php",
    "groupTitle": "Search"
  },
  {
    "type": "get",
    "url": "/provider/category/{category}",
    "title": "Get a providers by category",
    "name": "GetAllVerifiedProvidersByCategory",
    "description": "<p>all Providers verified or unverified by category</p>",
    "group": "Search",
    "parameter": {
      "fields": {
        "Parameter": [
          {
            "group": "Parameter",
            "type": "int",
            "optional": false,
            "field": "size",
            "description": "<p>Size of the provider wanted</p>"
          },
          {
            "group": "Parameter",
            "type": "int",
            "optional": false,
            "field": "page",
            "description": "<p>page of the number of pages</p>"
          }
        ]
      }
    },
    "success": {
      "fields": {
        "Success 200": [
          {
            "group": "Success 200",
            "type": "Boolean",
            "optional": false,
            "field": "status",
            "description": "<p>true</p>"
          },
          {
            "group": "Success 200",
            "type": "String[]",
            "optional": false,
            "field": "providers",
            "description": "<p>List of providers</p>"
          },
          {
            "group": "Success 200",
            "type": "int",
            "optional": false,
            "field": "total",
            "description": "<p>total number of search result</p>"
          },
          {
            "group": "Success 200",
            "type": "int",
            "optional": false,
            "field": "current",
            "description": "<p>Current page of search result</p>"
          },
          {
            "group": "Success 200",
            "type": "link",
            "optional": false,
            "field": "next",
            "description": "<p>Shows link to the next page, is null if no next page</p>"
          },
          {
            "group": "Success 200",
            "type": "link",
            "optional": false,
            "field": "prev",
            "description": "<p>Shows link to the prev page, is null if no prev page</p>"
          }
        ]
      }
    },
    "error": {
      "fields": {
        "Error 4xx": [
          {
            "group": "Error 4xx",
            "type": "Boolean",
            "optional": false,
            "field": "status",
            "description": "<p>false</p>"
          },
          {
            "group": "Error 4xx",
            "type": "String",
            "optional": false,
            "field": "message",
            "description": "<p>No providers found</p>"
          }
        ]
      }
    },
    "version": "0.0.0",
    "filename": "app/Controller/ProviderController.php",
    "groupTitle": "Search"
  },
  {
    "type": "get",
    "url": "/search/provider",
    "title": "Update a particular user password information",
    "name": "SearchProvider",
    "description": "<p>Search for a provider based on location</p>",
    "group": "Search",
    "parameter": {
      "fields": {
        "Parameter": [
          {
            "group": "Parameter",
            "type": "float",
            "optional": false,
            "field": "latitude",
            "description": "<p>Latitude of the position</p>"
          },
          {
            "group": "Parameter",
            "type": "float",
            "optional": false,
            "field": "longitude",
            "description": "<p>Longitude of the position of the user search</p>"
          },
          {
            "group": "Parameter",
            "type": "String",
            "optional": false,
            "field": "skill",
            "description": "<p>Skill the user wants</p>"
          },
          {
            "group": "Parameter",
            "type": "String",
            "optional": false,
            "field": "category",
            "description": "<p>The category of the search</p>"
          },
          {
            "group": "Parameter",
            "type": "int",
            "optional": false,
            "field": "distance",
            "description": "<p>The distance</p>"
          }
        ]
      }
    },
    "success": {
      "fields": {
        "Success 200": [
          {
            "group": "Success 200",
            "type": "Boolean",
            "optional": false,
            "field": "status",
            "description": "<p>true</p>"
          },
          {
            "group": "Success 200",
            "type": "String[]",
            "optional": false,
            "field": "providers",
            "description": "<p>List of providers</p>"
          },
          {
            "group": "Success 200",
            "type": "int",
            "optional": false,
            "field": "total",
            "description": "<p>total number of search result</p>"
          },
          {
            "group": "Success 200",
            "type": "int",
            "optional": false,
            "field": "current",
            "description": "<p>Current page of search result</p>"
          },
          {
            "group": "Success 200",
            "type": "int",
            "optional": false,
            "field": "pages",
            "description": "<p>Total number of pages of search result</p>"
          },
          {
            "group": "Success 200",
            "type": "link",
            "optional": false,
            "field": "next",
            "description": "<p>Shows link to the next page, is null if no next page</p>"
          },
          {
            "group": "Success 200",
            "type": "link",
            "optional": false,
            "field": "prev",
            "description": "<p>Shows link to the prev page, is null if no prev page</p>"
          }
        ]
      }
    },
    "error": {
      "fields": {
        "Error 4xx": [
          {
            "group": "Error 4xx",
            "type": "Boolean",
            "optional": false,
            "field": "status",
            "description": "<p>false</p>"
          },
          {
            "group": "Error 4xx",
            "type": "String",
            "optional": false,
            "field": "message",
            "description": "<p>No providers found</p>"
          }
        ]
      }
    },
    "version": "0.0.0",
    "filename": "app/Controller/SearchController.php",
    "groupTitle": "Search"
  },
  {
    "type": "post",
    "url": "/provider/profile",
    "title": "Update a provide profile",
    "name": "UpdateProviderProfile",
    "description": "<p>Update a providers information</p>",
    "group": "Search",
    "parameter": {
      "fields": {
        "Parameter": [
          {
            "group": "Parameter",
            "type": "link",
            "optional": false,
            "field": "link",
            "description": "<p>(Required) Link of the provider</p>"
          },
          {
            "group": "Parameter",
            "type": "string",
            "optional": false,
            "field": "facebook",
            "description": "<p>facebook link of the provider</p>"
          },
          {
            "group": "Parameter",
            "type": "string",
            "optional": false,
            "field": "twitter",
            "description": "<p>twitter link of the provider</p>"
          },
          {
            "group": "Parameter",
            "type": "string",
            "optional": false,
            "field": "website",
            "description": "<p>website link of the provider</p>"
          },
          {
            "group": "Parameter",
            "type": "string",
            "optional": false,
            "field": "work_email",
            "description": "<p>Work email of the provider</p>"
          },
          {
            "group": "Parameter",
            "type": "int",
            "optional": false,
            "field": "travel",
            "description": "<p>Willingness of the provider to travel 0/1</p>"
          }
        ]
      }
    },
    "success": {
      "fields": {
        "Success 200": [
          {
            "group": "Success 200",
            "type": "Boolean",
            "optional": false,
            "field": "status",
            "description": "<p>true</p>"
          },
          {
            "group": "Success 200",
            "type": "String[]",
            "optional": false,
            "field": "data",
            "description": "<p>List of providers</p>"
          }
        ]
      }
    },
    "error": {
      "fields": {
        "Error 4xx": [
          {
            "group": "Error 4xx",
            "type": "Boolean",
            "optional": false,
            "field": "status",
            "description": "<p>false</p>"
          },
          {
            "group": "Error 4xx",
            "type": "String",
            "optional": false,
            "field": "message",
            "description": "<p>Sorry could not update profile</p>"
          }
        ]
      }
    },
    "version": "0.0.0",
    "filename": "app/Controller/ProviderController.php",
    "groupTitle": "Search"
  },
  {
    "type": "put",
    "url": "/profession",
    "title": "Create a profession",
    "name": "CreateProfession",
    "description": "<p>This is to create profession such as carpenter,</p>",
    "group": "User",
    "parameter": {
      "fields": {
        "Parameter": [
          {
            "group": "Parameter",
            "type": "String",
            "optional": false,
            "field": "name",
            "description": "<p>name of the profession</p>"
          },
          {
            "group": "Parameter",
            "type": "String",
            "optional": false,
            "field": "description",
            "description": "<p>Description of the profession</p>"
          },
          {
            "group": "Parameter",
            "type": "File",
            "optional": false,
            "field": "image",
            "description": "<p>Image to describe the professsion</p>"
          }
        ]
      }
    },
    "success": {
      "fields": {
        "Success 200": [
          {
            "group": "Success 200",
            "type": "Boolean",
            "optional": false,
            "field": "status",
            "description": "<p>true</p>"
          },
          {
            "group": "Success 200",
            "type": "String",
            "optional": false,
            "field": "message",
            "description": "<p>Successfully created the profession</p>"
          }
        ]
      }
    },
    "error": {
      "fields": {
        "Error 4xx": [
          {
            "group": "Error 4xx",
            "type": "Boolean",
            "optional": false,
            "field": "status",
            "description": "<p>false</p>"
          },
          {
            "group": "Error 4xx",
            "type": "String",
            "optional": false,
            "field": "message",
            "description": ""
          }
        ]
      }
    },
    "version": "0.0.0",
    "filename": "app/Controller/ProfessionalController.php",
    "groupTitle": "User"
  },
  {
    "type": "post",
    "url": "/user",
    "title": "Create a user via normal website registration",
    "name": "CreateUser",
    "description": "<p>This involves getting a email confirmation after registration</p>",
    "group": "User",
    "parameter": {
      "fields": {
        "Parameter": [
          {
            "group": "Parameter",
            "type": "String",
            "optional": false,
            "field": "id",
            "description": "<p>(Required) Facebook id of the user</p>"
          },
          {
            "group": "Parameter",
            "type": "String",
            "optional": false,
            "field": "username",
            "description": "<p>Username of the user</p>"
          },
          {
            "group": "Parameter",
            "type": "String",
            "optional": false,
            "field": "password",
            "description": "<p>Password of the user</p>"
          },
          {
            "group": "Parameter",
            "type": "String",
            "optional": false,
            "field": "email",
            "description": "<p>Email of the user</p>"
          }
        ]
      }
    },
    "success": {
      "fields": {
        "Success 200": [
          {
            "group": "Success 200",
            "type": "String",
            "optional": false,
            "field": "message",
            "description": "<p>Successfully created user</p>"
          },
          {
            "group": "Success 200",
            "type": "Boolean",
            "optional": false,
            "field": "status",
            "description": "<p>true</p>"
          }
        ]
      }
    },
    "error": {
      "fields": {
        "Error 4xx": [
          {
            "group": "Error 4xx",
            "type": "Boolean",
            "optional": false,
            "field": "status",
            "description": "<p>false</p>"
          },
          {
            "group": "Error 4xx",
            "type": "String",
            "optional": false,
            "field": "message",
            "description": "<p>The username exists</p>"
          },
          {
            "group": "Error 4xx",
            "type": "Code",
            "optional": false,
            "field": "code",
            "description": "<p>10</p>"
          }
        ]
      }
    },
    "version": "0.0.0",
    "filename": "app/Controller/UserController.php",
    "groupTitle": "User"
  },
  {
    "type": "post",
    "url": "/user/facebook",
    "title": "Create a user via facebook registration",
    "name": "CreateUser",
    "description": "<p>Please note that all the data required for the facebook login shall be gotten from facebook api</p>",
    "group": "User",
    "parameter": {
      "fields": {
        "Parameter": [
          {
            "group": "Parameter",
            "type": "String",
            "optional": false,
            "field": "id",
            "description": "<p>(Required) Facebook id of the user</p>"
          },
          {
            "group": "Parameter",
            "type": "String",
            "optional": false,
            "field": "first_name",
            "description": "<p>Firstname of the user</p>"
          },
          {
            "group": "Parameter",
            "type": "String",
            "optional": false,
            "field": "last_name",
            "description": "<p>Lastname of the user</p>"
          },
          {
            "group": "Parameter",
            "type": "String",
            "optional": false,
            "field": "email",
            "description": "<p>Email of the user</p>"
          },
          {
            "group": "Parameter",
            "type": "String",
            "optional": false,
            "field": "facebook_link",
            "description": "<p>Link of the user facebook</p>"
          },
          {
            "group": "Parameter",
            "type": "String",
            "optional": false,
            "field": "gender",
            "description": "<p>Gender of the user</p>"
          },
          {
            "group": "Parameter",
            "type": "String",
            "optional": false,
            "field": "picture",
            "description": "<p>Link to the picture of the use</p>"
          },
          {
            "group": "Parameter",
            "type": "String",
            "optional": false,
            "field": "access_token",
            "description": "<p>The access token generated by facebook</p>"
          },
          {
            "group": "Parameter",
            "type": "String",
            "optional": false,
            "field": "locale",
            "description": "<p>The locale of the user from facebook</p>"
          }
        ]
      }
    },
    "success": {
      "fields": {
        "Success 200": [
          {
            "group": "Success 200",
            "type": "Number",
            "optional": false,
            "field": "statusCode",
            "description": "<p>201</p>"
          },
          {
            "group": "Success 200",
            "type": "String",
            "optional": false,
            "field": "message",
            "description": "<p>Successfully created user</p>"
          },
          {
            "group": "Success 200",
            "type": "Boolean",
            "optional": false,
            "field": "status",
            "description": "<p>true</p>"
          }
        ]
      }
    },
    "version": "0.0.0",
    "filename": "app/Controller/UserController.php",
    "groupTitle": "User"
  },
  {
    "type": "delete",
    "url": "/user/:username",
    "title": "Delete a particular user",
    "name": "Delete_user",
    "description": "<p>Delete a particular user</p>",
    "group": "User",
    "parameter": {
      "fields": {
        "Parameter": [
          {
            "group": "Parameter",
            "type": "String",
            "optional": false,
            "field": "username",
            "description": "<p>Its the dynamic part of the url specified by :</p>"
          }
        ]
      }
    },
    "success": {
      "fields": {
        "Success 200": [
          {
            "group": "Success 200",
            "type": "String[]",
            "optional": false,
            "field": "data",
            "description": "<p>User information</p>"
          },
          {
            "group": "Success 200",
            "type": "Boolean",
            "optional": false,
            "field": "status",
            "description": "<p>true</p>"
          },
          {
            "group": "Success 200",
            "type": "String",
            "optional": false,
            "field": "message",
            "description": "<p>Successfully deleted user</p>"
          }
        ]
      }
    },
    "error": {
      "fields": {
        "Error 4xx": [
          {
            "group": "Error 4xx",
            "type": "Boolean",
            "optional": false,
            "field": "status",
            "description": "<p>false</p>"
          },
          {
            "group": "Error 4xx",
            "type": "String",
            "optional": false,
            "field": "message",
            "description": "<p>User not found</p>"
          }
        ]
      }
    },
    "version": "0.0.0",
    "filename": "app/Controller/UserController.php",
    "groupTitle": "User"
  },
  {
    "type": "post",
    "url": "/forgot",
    "title": "Create a user via normal website registration",
    "name": "ForgotPassword",
    "description": "<p>This is the route for when users forget their passwords. A reset link will be sent to their emails.</p>",
    "group": "User",
    "parameter": {
      "fields": {
        "Parameter": [
          {
            "group": "Parameter",
            "type": "String",
            "optional": false,
            "field": "email",
            "description": "<p>Email of the user</p>"
          }
        ]
      }
    },
    "success": {
      "fields": {
        "Success 200": [
          {
            "group": "Success 200",
            "type": "String",
            "optional": false,
            "field": "message",
            "description": "<p>An email has been sent successfully</p>"
          },
          {
            "group": "Success 200",
            "type": "Boolean",
            "optional": false,
            "field": "status",
            "description": "<p>true</p>"
          }
        ]
      }
    },
    "error": {
      "fields": {
        "Error 4xx": [
          {
            "group": "Error 4xx",
            "type": "Boolean",
            "optional": false,
            "field": "status",
            "description": "<p>false</p>"
          },
          {
            "group": "Error 4xx",
            "type": "String",
            "optional": false,
            "field": "message",
            "description": "<p>Sorry User not found</p>"
          },
          {
            "group": "Error 4xx",
            "type": "Code",
            "optional": false,
            "field": "code",
            "description": "<p>The codes depend on what type of error message you receive</p>"
          }
        ]
      }
    },
    "version": "0.0.0",
    "filename": "app/Controller/UserController.php",
    "groupTitle": "User"
  },
  {
    "type": "get",
    "url": "/user/:username",
    "title": "Get a particular user information",
    "name": "Get_a_single_user",
    "description": "<p>Get a single user detail</p>",
    "group": "User",
    "parameter": {
      "fields": {
        "Parameter": [
          {
            "group": "Parameter",
            "type": "String",
            "optional": false,
            "field": "username",
            "description": "<p>Its the dynamic part of the url specified by :</p>"
          }
        ]
      }
    },
    "success": {
      "fields": {
        "Success 200": [
          {
            "group": "Success 200",
            "type": "String[]",
            "optional": false,
            "field": "data",
            "description": "<p>User information</p>"
          },
          {
            "group": "Success 200",
            "type": "Boolean",
            "optional": false,
            "field": "status",
            "description": "<p>true</p>"
          }
        ]
      }
    },
    "error": {
      "fields": {
        "Error 4xx": [
          {
            "group": "Error 4xx",
            "type": "Boolean",
            "optional": false,
            "field": "status",
            "description": "<p>false</p>"
          },
          {
            "group": "Error 4xx",
            "type": "String",
            "optional": false,
            "field": "message",
            "description": "<p>Link expired Generate another one</p>"
          }
        ]
      }
    },
    "version": "0.0.0",
    "filename": "app/Controller/UserController.php",
    "groupTitle": "User"
  },
  {
    "type": "post",
    "url": "/user/facebook",
    "title": "Login via facebook",
    "name": "LoginFacebook",
    "group": "User",
    "parameter": {
      "fields": {
        "Parameter": [
          {
            "group": "Parameter",
            "type": "String",
            "optional": false,
            "field": "facebook_id",
            "description": "<p>Required Username of the user</p>"
          },
          {
            "group": "Parameter",
            "type": "String",
            "optional": false,
            "field": "email",
            "description": "<p>Required Email</p>"
          }
        ]
      }
    },
    "success": {
      "fields": {
        "Success 200": [
          {
            "group": "Success 200",
            "type": "String",
            "optional": false,
            "field": "message",
            "description": "<p>Successfully created user</p>"
          },
          {
            "group": "Success 200",
            "type": "Boolean",
            "optional": false,
            "field": "status",
            "description": "<p>true</p>"
          }
        ]
      }
    },
    "error": {
      "fields": {
        "Error 4xx": [
          {
            "group": "Error 4xx",
            "type": "Boolean",
            "optional": false,
            "field": "status",
            "description": "<p>false</p>"
          },
          {
            "group": "Error 4xx",
            "type": "String",
            "optional": false,
            "field": "message",
            "description": "<p>Login failed</p>"
          }
        ]
      }
    },
    "version": "0.0.0",
    "filename": "app/Controller/UserController.php",
    "groupTitle": "User"
  },
  {
    "type": "post",
    "url": "/user/login",
    "title": "Login a user via normal website registration",
    "group": "User",
    "name": "LoginUser",
    "parameter": {
      "fields": {
        "Parameter": [
          {
            "group": "Parameter",
            "type": "String",
            "optional": false,
            "field": "email",
            "description": "<p>Required Email</p>"
          },
          {
            "group": "Parameter",
            "type": "String",
            "optional": false,
            "field": "password",
            "description": "<p>Required Password</p>"
          }
        ]
      }
    },
    "success": {
      "fields": {
        "Success 200": [
          {
            "group": "Success 200",
            "type": "Boolean",
            "optional": false,
            "field": "status",
            "description": "<p>true</p>"
          },
          {
            "group": "Success 200",
            "type": "String[]",
            "optional": false,
            "field": "data",
            "description": "<p>This is the user information. It contains the user data.</p>"
          }
        ]
      }
    },
    "error": {
      "fields": {
        "Error 4xx": [
          {
            "group": "Error 4xx",
            "optional": false,
            "field": "LoginFailed",
            "description": "<p>{Number} code {The error code returned is special for unsuccessful logins}</p>"
          }
        ]
      }
    },
    "version": "0.0.0",
    "filename": "app/Controller/UserController.php",
    "groupTitle": "User"
  },
  {
    "type": "post",
    "url": "/user/reset",
    "title": "Confirm the link user generated is valid through the api",
    "name": "Password_Reset_confirmation",
    "description": "<p>This invovles the user clicking the reset link sent to their mails</p>",
    "group": "User",
    "parameter": {
      "fields": {
        "Parameter": [
          {
            "group": "Parameter",
            "type": "String",
            "optional": false,
            "field": "email",
            "description": "<p>Email of the user</p>"
          },
          {
            "group": "Parameter",
            "type": "String",
            "optional": false,
            "field": "link",
            "description": "<p>Generated link part of the url sent to the user</p>"
          }
        ]
      }
    },
    "success": {
      "fields": {
        "Success 200": [
          {
            "group": "Success 200",
            "type": "String",
            "optional": false,
            "field": "message",
            "description": "<p>Successful</p>"
          },
          {
            "group": "Success 200",
            "type": "Boolean",
            "optional": false,
            "field": "status",
            "description": "<p>true</p>"
          }
        ]
      }
    },
    "error": {
      "fields": {
        "Error 4xx": [
          {
            "group": "Error 4xx",
            "type": "Boolean",
            "optional": false,
            "field": "status",
            "description": "<p>false</p>"
          },
          {
            "group": "Error 4xx",
            "type": "String",
            "optional": false,
            "field": "message",
            "description": "<p>Link expired Generate another one</p>"
          }
        ]
      }
    },
    "version": "0.0.0",
    "filename": "app/Controller/UserController.php",
    "groupTitle": "User"
  },
  {
    "type": "put",
    "url": "/user/:username",
    "title": "Update a particular user password information",
    "name": "Update_a_user_password",
    "description": "<p>Delete a particular user</p>",
    "group": "User",
    "parameter": {
      "fields": {
        "Parameter": [
          {
            "group": "Parameter",
            "type": "String",
            "optional": false,
            "field": "username",
            "description": "<p>username of the user</p>"
          },
          {
            "group": "Parameter",
            "type": "String",
            "optional": false,
            "field": "password",
            "description": "<p>New password</p>"
          },
          {
            "group": "Parameter",
            "type": "String",
            "optional": false,
            "field": "rpassword",
            "description": "<p>Repeat new password</p>"
          },
          {
            "group": "Parameter",
            "type": "String",
            "optional": false,
            "field": "opassword",
            "description": "<p>User old password</p>"
          }
        ]
      }
    },
    "success": {
      "fields": {
        "Success 200": [
          {
            "group": "Success 200",
            "type": "Boolean",
            "optional": false,
            "field": "status",
            "description": "<p>true</p>"
          },
          {
            "group": "Success 200",
            "type": "String",
            "optional": false,
            "field": "message",
            "description": "<p>Successfully updated user</p>"
          }
        ]
      }
    },
    "error": {
      "fields": {
        "Error 4xx": [
          {
            "group": "Error 4xx",
            "type": "Boolean",
            "optional": false,
            "field": "status",
            "description": "<p>false</p>"
          },
          {
            "group": "Error 4xx",
            "type": "String",
            "optional": false,
            "field": "message",
            "description": "<p>User not found</p>"
          }
        ]
      }
    },
    "version": "0.0.0",
    "filename": "app/Controller/UserController.php",
    "groupTitle": "User"
  },
  {
    "type": "get",
    "url": "/user/confirm",
    "title": "",
    "name": "User_Confirm",
    "description": "<p>Confirm a user registration</p>",
    "group": "User",
    "parameter": {
      "fields": {
        "Parameter": [
          {
            "group": "Parameter",
            "type": "String",
            "optional": false,
            "field": "username",
            "description": "<p>Its the dynamic part of the url specified by :</p>"
          }
        ]
      }
    },
    "success": {
      "fields": {
        "Success 200": [
          {
            "group": "Success 200",
            "type": "String[]",
            "optional": false,
            "field": "data",
            "description": "<p>User information</p>"
          },
          {
            "group": "Success 200",
            "type": "Boolean",
            "optional": false,
            "field": "status",
            "description": "<p>true</p>"
          }
        ]
      }
    },
    "error": {
      "fields": {
        "Error 4xx": [
          {
            "group": "Error 4xx",
            "type": "Boolean",
            "optional": false,
            "field": "status",
            "description": "<p>false</p>"
          },
          {
            "group": "Error 4xx",
            "type": "String",
            "optional": false,
            "field": "message",
            "description": "<p>Link expired Generate another one</p>"
          }
        ]
      }
    },
    "version": "0.0.0",
    "filename": "app/Controller/UserController.php",
    "groupTitle": "User"
  },
  {
    "type": "post",
    "url": "/admin",
    "title": "register admin via username and password",
    "name": "AdminLogin",
    "group": "admin",
    "parameter": {
      "fields": {
        "Parameter": [
          {
            "group": "Parameter",
            "type": "String",
            "optional": false,
            "field": "username",
            "description": "<p>Required Username of the user</p>"
          },
          {
            "group": "Parameter",
            "type": "String",
            "optional": false,
            "field": "password",
            "description": "<p>Required Password</p>"
          },
          {
            "group": "Parameter",
            "type": "String",
            "optional": false,
            "field": "email",
            "description": "<p>Required email</p>"
          }
        ]
      }
    },
    "success": {
      "fields": {
        "Success 200": [
          {
            "group": "Success 200",
            "type": "String",
            "optional": false,
            "field": "message",
            "description": "<p>Successfully created admin</p>"
          },
          {
            "group": "Success 200",
            "type": "String",
            "optional": false,
            "field": "status",
            "description": "<p>success</p>"
          }
        ]
      }
    },
    "version": "0.0.0",
    "filename": "app/Controller/AdminController.php",
    "groupTitle": "admin"
  },
  {
    "type": "post",
    "url": "/admin",
    "title": "Login admin via username and password",
    "name": "AdminLogin",
    "group": "admin",
    "parameter": {
      "fields": {
        "Parameter": [
          {
            "group": "Parameter",
            "type": "String",
            "optional": false,
            "field": "username",
            "description": "<p>Required Username of the user</p>"
          },
          {
            "group": "Parameter",
            "type": "String",
            "optional": false,
            "field": "password",
            "description": "<p>Required Password</p>"
          }
        ]
      }
    },
    "success": {
      "fields": {
        "Success 200": [
          {
            "group": "Success 200",
            "type": "String",
            "optional": false,
            "field": "message",
            "description": "<p>Successfully created user</p>"
          },
          {
            "group": "Success 200",
            "type": "String",
            "optional": false,
            "field": "status",
            "description": "<p>success</p>"
          }
        ]
      }
    },
    "version": "0.0.0",
    "filename": "app/Controller/AdminController.php",
    "groupTitle": "admin"
  },
  {
    "type": "post",
    "url": "/admin/category",
    "title": "register admin via username and password",
    "name": "Create_Category",
    "group": "admin",
    "parameter": {
      "fields": {
        "Parameter": [
          {
            "group": "Parameter",
            "type": "String",
            "optional": false,
            "field": "title",
            "description": "<p>Unique title of category</p>"
          },
          {
            "group": "Parameter",
            "type": "String",
            "optional": false,
            "field": "description",
            "description": "<p>Description of the category</p>"
          },
          {
            "group": "Parameter",
            "type": "String",
            "optional": false,
            "field": "image",
            "description": "<p>Required image of category</p>"
          }
        ]
      }
    },
    "success": {
      "fields": {
        "Success 200": [
          {
            "group": "Success 200",
            "type": "String",
            "optional": false,
            "field": "message",
            "description": "<p>Successfully created admin</p>"
          },
          {
            "group": "Success 200",
            "type": "String",
            "optional": false,
            "field": "status",
            "description": "<p>success</p>"
          }
        ]
      }
    },
    "version": "0.0.0",
    "filename": "app/Controller/AdminController.php",
    "groupTitle": "admin"
  },
  {
    "type": "post",
    "url": "/admin/category",
    "title": "register admin via username and password",
    "name": "Create_Category",
    "group": "admin",
    "parameter": {
      "fields": {
        "Parameter": [
          {
            "group": "Parameter",
            "type": "String",
            "optional": false,
            "field": "title",
            "description": "<p>Unique title of category</p>"
          },
          {
            "group": "Parameter",
            "type": "String",
            "optional": false,
            "field": "description",
            "description": "<p>Description of the category</p>"
          },
          {
            "group": "Parameter",
            "type": "String",
            "optional": false,
            "field": "image",
            "description": "<p>Required image of category</p>"
          }
        ]
      }
    },
    "success": {
      "fields": {
        "Success 200": [
          {
            "group": "Success 200",
            "type": "String",
            "optional": false,
            "field": "message",
            "description": "<p>Successfully created admin</p>"
          },
          {
            "group": "Success 200",
            "type": "String",
            "optional": false,
            "field": "status",
            "description": "<p>success</p>"
          }
        ]
      }
    },
    "version": "0.0.0",
    "filename": "app/Controller/AdminController.php",
    "groupTitle": "admin"
  },
  {
    "type": "get",
    "url": "/profession/:name",
    "title": "Get a profession or particular profession",
    "name": "GetProfession",
    "description": "<p>This is to retreive the list of professionals. The :name is optional it refers to the name of the profession,</p>",
    "group": "profession",
    "parameter": {
      "fields": {
        "Parameter": [
          {
            "group": "Parameter",
            "type": "String",
            "optional": false,
            "field": "name",
            "description": "<p>name of the profession</p>"
          }
        ]
      }
    },
    "success": {
      "fields": {
        "Success 200": [
          {
            "group": "Success 200",
            "type": "Boolean",
            "optional": false,
            "field": "status",
            "description": "<p>true</p>"
          },
          {
            "group": "Success 200",
            "type": "String[]",
            "optional": false,
            "field": "data",
            "description": "<p>Successfully created the profession</p>"
          }
        ]
      }
    },
    "error": {
      "fields": {
        "Error 4xx": [
          {
            "group": "Error 4xx",
            "type": "Boolean",
            "optional": false,
            "field": "status",
            "description": "<p>false</p>"
          },
          {
            "group": "Error 4xx",
            "type": "String",
            "optional": false,
            "field": "message",
            "description": ""
          }
        ]
      }
    },
    "version": "0.0.0",
    "filename": "app/Controller/ProfessionalController.php",
    "groupTitle": "profession"
  },
  {
    "type": "post",
    "url": "/provider/activate",
    "title": "Activate a provider profile",
    "name": "ActivateProviderProfile",
    "description": "<p>Activate a providers profile</p>",
    "group": "provider",
    "parameter": {
      "fields": {
        "Parameter": [
          {
            "group": "Parameter",
            "type": "id",
            "optional": false,
            "field": "id",
            "description": "<p>(Required) id of the provider</p>"
          }
        ]
      }
    },
    "success": {
      "fields": {
        "Success 200": [
          {
            "group": "Success 200",
            "type": "Boolean",
            "optional": false,
            "field": "status",
            "description": "<p>true</p>"
          },
          {
            "group": "Success 200",
            "type": "String",
            "optional": false,
            "field": "message",
            "description": "<p>Successfully Activated provider account</p>"
          },
          {
            "group": "Success 200",
            "type": "String[]",
            "optional": false,
            "field": "data",
            "description": ""
          }
        ]
      }
    },
    "error": {
      "fields": {
        "Error 4xx": [
          {
            "group": "Error 4xx",
            "type": "Boolean",
            "optional": false,
            "field": "status",
            "description": "<p>false</p>"
          },
          {
            "group": "Error 4xx",
            "type": "String",
            "optional": false,
            "field": "message",
            "description": "<p>Could not activate provider account</p>"
          }
        ]
      }
    },
    "version": "0.0.0",
    "filename": "app/Controller/ProviderController.php",
    "groupTitle": "provider"
  },
  {
    "type": "post",
    "url": "/provider/deactivate",
    "title": "Deactivate a provider profile",
    "name": "DeactivateProviderProfile",
    "description": "<p>Deactivate a providers profile</p>",
    "group": "provider",
    "parameter": {
      "fields": {
        "Parameter": [
          {
            "group": "Parameter",
            "type": "id",
            "optional": false,
            "field": "id",
            "description": "<p>(Required) id of the provider</p>"
          }
        ]
      }
    },
    "success": {
      "fields": {
        "Success 200": [
          {
            "group": "Success 200",
            "type": "Boolean",
            "optional": false,
            "field": "status",
            "description": "<p>true</p>"
          },
          {
            "group": "Success 200",
            "type": "String",
            "optional": false,
            "field": "message",
            "description": "<p>Successfully deactivated provider account</p>"
          },
          {
            "group": "Success 200",
            "type": "String[]",
            "optional": false,
            "field": "data",
            "description": "<p>List of providers</p>"
          }
        ]
      }
    },
    "error": {
      "fields": {
        "Error 4xx": [
          {
            "group": "Error 4xx",
            "type": "Boolean",
            "optional": false,
            "field": "status",
            "description": "<p>false</p>"
          },
          {
            "group": "Error 4xx",
            "type": "String",
            "optional": false,
            "field": "message",
            "description": "<p>Could not deactivate provider account</p>"
          }
        ]
      }
    },
    "version": "0.0.0",
    "filename": "app/Controller/ProviderController.php",
    "groupTitle": "provider"
  },
  {
    "type": "get",
    "url": "/provider/{link}",
    "title": "Get a single provider",
    "name": "GetAProvider",
    "description": "<p>get a single provider</p>",
    "group": "provider",
    "parameter": {
      "fields": {
        "Parameter": [
          {
            "group": "Parameter",
            "type": "link",
            "optional": false,
            "field": "link",
            "description": "<p>(Required) link of the provider</p>"
          }
        ]
      }
    },
    "success": {
      "fields": {
        "Success 200": [
          {
            "group": "Success 200",
            "type": "Boolean",
            "optional": false,
            "field": "status",
            "description": "<p>true</p>"
          },
          {
            "group": "Success 200",
            "type": "String[]",
            "optional": false,
            "field": "data",
            "description": "<p>provider info</p>"
          }
        ]
      }
    },
    "error": {
      "fields": {
        "Error 4xx": [
          {
            "group": "Error 4xx",
            "type": "Boolean",
            "optional": false,
            "field": "status",
            "description": "<p>false</p>"
          },
          {
            "group": "Error 4xx",
            "type": "String",
            "optional": false,
            "field": "message",
            "description": "<p>Could not find provider with link</p>"
          }
        ]
      }
    },
    "version": "0.0.0",
    "filename": "app/Controller/ProviderController.php",
    "groupTitle": "provider"
  },
  {
    "type": "get",
    "url": "/provider/confirm",
    "title": "",
    "name": "Provider_Confirm",
    "description": "<p>Confirm a Provider registration</p>",
    "group": "provider",
    "parameter": {
      "fields": {
        "Parameter": [
          {
            "group": "Parameter",
            "type": "String",
            "optional": false,
            "field": "us",
            "description": "<p>Its the dynamic part of the url specified by :</p>"
          },
          {
            "group": "Parameter",
            "type": "String",
            "optional": false,
            "field": "c",
            "description": "<p>Its the dynamic part of the url specified by :</p>"
          }
        ]
      }
    },
    "success": {
      "fields": {
        "Success 200": [
          {
            "group": "Success 200",
            "type": "String[]",
            "optional": false,
            "field": "data",
            "description": "<p>User information</p>"
          },
          {
            "group": "Success 200",
            "type": "Boolean",
            "optional": false,
            "field": "status",
            "description": "<p>true</p>"
          }
        ]
      }
    },
    "error": {
      "fields": {
        "Error 4xx": [
          {
            "group": "Error 4xx",
            "type": "Boolean",
            "optional": false,
            "field": "status",
            "description": "<p>false</p>"
          },
          {
            "group": "Error 4xx",
            "type": "String",
            "optional": false,
            "field": "message",
            "description": "<p>Link expired Generate another one</p>"
          }
        ]
      }
    },
    "version": "0.0.0",
    "filename": "app/Controller/ProviderController.php",
    "groupTitle": "provider"
  }
]
